{"pageData":[{"closed":false,"createDate":"","curId":18,"deliveryDate":"","gameId":"","gameItemId":"","gender":"","grade":0,"gradeName":"","guild":"","iconPath":"http://jishi.woniu.com/res/icon/prop/prop_canjuan.png","id":2363226,"itemAmount":2,"itemCode":"","itemDesc":"nothing","itemName":"【五行心法】残卷","itemType":"20","power":"","price":50,"publicityEndDate":"2015-11-05 18:12:33","returnDate":"","saveTime":"","sellerCasId":"","sellerGameId":"537BCD3C721340CEA849999AAEEC5814","sellerRole":"钱广发行","serverId":"7100069","shelfDate":"2015-11-05 18:12:33","shelfDays":13,"status":"已上架","unitPrice":25},{"closed":false,"createDate":"","curId":18,"deliveryDate":"","gameId":"","gameItemId":"","gender":"","grade":0,"gradeName":"","guild":"","iconPath":"http://jishi.woniu.com/res/icon/prop/prop_canjuan.png","id":2384918,"itemAmount":2,"itemCode":"","itemDesc":"nothing","itemName":"【冰心诀】残卷","itemType":"20","power":"","price":60,"publicityEndDate":"2015-11-04 18:35:44","returnDate":"","saveTime":"","sellerCasId":"","sellerGameId":"C7D3136167D54BF3AC90B11936528B2E","sellerRole":"徐乄火龙神","serverId":"7100069","shelfDate":"2015-11-04 18:35:44","shelfDays":10,"status":"已上架","unitPrice":30},{"closed":false,"createDate":"","curId":18,"deliveryDate":"","gameId":"","gameItemId":"","gender":"","grade":0,"gradeName":"","guild":"","iconPath":"http://jishi.woniu.com/res/icon/prop/prop_canjuan.png","id":2369998,"itemAmount":3,"itemCode":"","itemDesc":"nothing","itemName":"【五行心法】残卷","itemType":"20","power":"","price":99,"publicityEndDate":"2015-10-26 08:11:03","returnDate":"","saveTime":"","sellerCasId":"","sellerGameId":"537BCD3C721340CEA849999AAEEC5814","sellerRole":"钱广发行","serverId":"7100069","shelfDate":"2015-10-26 08:11:03","shelfDays":13,"status":"已上架","unitPrice":33},{"closed":false,"createDate":"","curId":18,"deliveryDate":"","gameId":"","gameItemId":"","gender":"","grade":0,"gradeName":"","guild":"","iconPath":"http://jishi.woniu.com/res/icon/prop/prop_canjuan.png","id":2385393,"itemAmount":17,"itemCode":"","itemDesc":"nothing","itemName":"【冰心诀】残卷","itemType":"20","power":"","price":595,"publicityEndDate":"2015-11-04 23:38:02","returnDate":"","saveTime":"","sellerCasId":"","sellerGameId":"919C0F4BCAD54537A5BCF3A5659397DC","sellerRole":"徐徐红酥手","serverId":"7100069","shelfDate":"2015-11-04 20:38:02","shelfDays":13,"status":"已上架","unitPrice":35},{"closed":false,"createDate":"","curId":18,"deliveryDate":"","gameId":"","gameItemId":"","gender":"","grade":0,"gradeName":"","guild":"","iconPath":"http://jishi.woniu.com/res/icon/prop/prop_canjuan.png","id":2360680,"itemAmount":1,"itemCode":"","itemDesc":"nothing","itemName":"【五行心法】残卷","itemType":"20","power":"","price":35,"publicityEndDate":"2015-11-02 19:02:38","returnDate":"","saveTime":"","sellerCasId":"","sellerGameId":"537BCD3C721340CEA849999AAEEC5814","sellerRole":"钱广发行","serverId":"7100069","shelfDate":"2015-11-02 19:02:38","shelfDays":13,"status":"已上架","unitPrice":35},{"closed":false,"createDate":"","curId":18,"deliveryDate":"","gameId":"","gameItemId":"","gender":"","grade":0,"gradeName":"","guild":"","iconPath":"http://jishi.woniu.com/res/icon/prop/prop_canjuan.png","id":2377695,"itemAmount":1,"itemCode":"","itemDesc":"nothing","itemName":"【紫霞功】残卷","itemType":"20","power":"","price":38,"publicityEndDate":"2015-11-06 10:40:47","returnDate":"","saveTime":"","sellerCasId":"","sellerGameId":"FA9A08B31AD44A08A36C215F150E638E","sellerRole":"若水无痕","serverId":"7100069","shelfDate":"2015-11-06 10:40:47","shelfDays":13,"status":"已上架","unitPrice":38},{"closed":false,"createDate":"","curId":18,"deliveryDate":"","gameId":"","gameItemId":"","gender":"","grade":0,"gradeName":"","guild":"","iconPath":"http://jishi.woniu.com/res/icon/prop/prop_canjuan.png","id":2382114,"itemAmount":1,"itemCode":"","itemDesc":"nothing","itemName":"【紫霞功】残卷","itemType":"20","power":"","price":40,"publicityEndDate":"2015-11-02 23:18:31","returnDate":"","saveTime":"","sellerCasId":"","sellerGameId":"0CEC58F2B5DC4754853D625EF8A5CA0D","sellerRole":"浪子雨","serverId":"7100069","shelfDate":"2015-11-02 23:18:31","shelfDays":13,"status":"已上架","unitPrice":40},{"closed":false,"createDate":"","curId":18,"deliveryDate":"","gameId":"","gameItemId":"","gender":"","grade":0,"gradeName":"","guild":"","iconPath":"http://jishi.woniu.com/res/icon/prop/prop_canjuan.png","id":2356879,"itemAmount":1,"itemCode":"","itemDesc":"nothing","itemName":"【紫霞功】残卷","itemType":"20","power":"","price":45,"publicityEndDate":"2015-11-02 19:03:14","returnDate":"","saveTime":"","sellerCasId":"","sellerGameId":"537BCD3C721340CEA849999AAEEC5814","sellerRole":"钱广发行","serverId":"7100069","shelfDate":"2015-11-02 19:03:14","shelfDays":13,"status":"已上架","unitPrice":45},{"closed":false,"createDate":"","curId":18,"deliveryDate":"","gameId":"","gameItemId":"","gender":"","grade":0,"gradeName":"","guild":"","iconPath":"http://jishi.woniu.com/res/icon/prop/prop_canjuan.png","id":2370227,"itemAmount":2,"itemCode":"","itemDesc":"nothing","itemName":"【紫霞功】残卷","itemType":"20","power":"","price":100,"publicityEndDate":"2015-10-26 13:02:00","returnDate":"","saveTime":"","sellerCasId":"","sellerGameId":"B2481A4AC82642A0B4370C5D8B064F01","sellerRole":"贺兰傾傾","serverId":"7100069","shelfDate":"2015-10-26 13:02:00","shelfDays":13,"status":"已上架","unitPrice":50},{"closed":false,"createDate":"","curId":18,"deliveryDate":"","gameId":"","gameItemId":"","gender":"","grade":0,"gradeName":"","guild":"","iconPath":"http://jishi.woniu.com/res/icon/prop/cjbook_CS_jh_mlyqj.png","id":2386945,"itemAmount":1,"itemCode":"","itemDesc":"nothing","itemName":"【冲灵剑法】残卷","itemType":"20","power":"","price":60,"publicityEndDate":"2015-11-05 16:50:12","returnDate":"","saveTime":"","sellerCasId":"","sellerGameId":"EDBEA2285B2D459780EFA646D2D1F51C","sellerRole":"火焰焰","serverId":"7100069","shelfDate":"2015-11-05 16:50:12","shelfDays":13,"status":"已上架","unitPrice":60}],"searchParams":{"typeName":"20","itemName":null,"flag":true,"excludeItemId":null,"sortField":"unitPrice","typeNameParam":"20","gameId":"10","serverId":"7100069","sortWay":"asc"},"pageInfo":{"pageId":1,"pageSize":10,"totalCount":119,"totalPages":12}}